{
  "verified_claims": {
    "verification": {
      "trust_framework": "de_aml",
      "time": "2012-04-23T18:25Z",
      "verification_process": "f24c6f-6d3f-4ec5-973e-b0d8506f3bc7",
      "evidence": [
        {
          "type": "id_document",
          "method": "pipp",
          "verifier": {
            "organization": "Deutsche Post",
            "txn": "1aa05779-0775-470f-a5c4-9f1f5e56cf06"
          },
          "time": "2012-04-22T11:30Z",
          "document": {
            "type": "idcard",
            "issuer": {
              "name": "Stadt Augsburg",
              "country": "DE"
            },
            "number": "53554554",
            "date_of_issuance": "2010-03-23",
            "date_of_expiry": "2020-03-22"
          }
        }
      ]
    },
    "claims": {
      "given_name": "Max",
      "family_name": "Meier",
      "birthdate": "1956-01-28",
      "place_of_birth": {
        "country": "DE",
        "locality": "Musterstadt"
      },
      "nationalities": [
        "DE"
      ],
      "address": {
        "locality": "Maxstadt",
        "postal_code": "12344",
        "country": "DE",
        "street_address": "An der Weide 22"
      }
    }
  }
}
